ledger_id,ledger_name
1,Dkit 
2,Job Pay 
3, Aer Lingus
4,Electric Ireland 
5,Bord Gais Energy
6,Irish Water
7,Aldi
8,Energia
9,Lidl
10,Three
11,Sky Ireland
12,Eircom
13,Ebay
14,Amazon
15,An Post 
16,Maxol
17,AIB
18,Vodafone
19,Argos 
20,Smiths 
21,Tesco Ireland
